-7.-6.-5.-4.-3.-2.-1.0.1.2.3.4.5.6.7.
C.83.23.56.76.92.96.88.76.179.85.86.72.48.33.65.
D.100.77.52.30.35.42.95.123.90.82.75.62.78.82.98.
E.45.16.23.15.29.44.59.76.67.53.49.37.25.56.62.
F.13.12.17.15.14.19.30.21.25.15.19.17.16.23.26.
G.55.42.33.24.32.39.46.55.51.45.37.31.36.42.39.
A.83.7.20.12.15.23.19.92.19.12.14.17.23.29.97.
B.1.0.0.0.0.0.0.0.15.0.0.0.0.0.1.
C-E.D-F.C.-D.E-F.G-.A.A-E..-D-A.G-.E-F-D.A.-G.E.-D.C-E-..F-..G-B-D.
   56.48.36.22.26.29.33.27.21.73.55.42.11.19.33
